id;loan_value;total_value;percent_owned;item_date;bank_account_id
1;22916.85;32614.86;70.55;2024-03-02;1
2;29226.65;10679.82;34.08;2024-03-03;2
3;18995.02;4687.09;81.23;2024-03-03;3
4;8138.51;32275.03;21.63;2024-03-02;4
5;6951.74;31006;61.21;2024-03-03;5
6;15573;17996.24;46.58;2024-03-03;6
7;9000.99;796.49;88.92;2024-03-03;7
8;25220.64;3121.76;79.19;2024-03-03;8
9;10617.38;19210.03;83.73;2024-03-02;9
10;32513.66;27608.01;88.38;2024-03-02;10
