{
  "annotations": {
    "changelogDate": "20240303162640"
  },
  "applications": "*",
  "dto": "mapstruct",
  "entityTableName": "application_user",
  "fields": [
    {
      "fieldName": "nickName",
      "fieldType": "String",
      "fieldValidateRules": ["required"]
    }
  ],
  "jpaMetamodelFiltering": true,
  "name": "ApplicationUser",
  "pagination": "pagination",
  "relationships": [
    {
      "otherEntityField": "login",
      "otherEntityName": "user",
      "relationshipName": "user",
      "relationshipSide": "left",
      "relationshipType": "one-to-one",
      "relationshipValidateRules": "required",
      "relationshipWithBuiltInEntity": true
    }
  ],
  "searchEngine": "elasticsearch",
  "service": "serviceClass"
}
